C:\Users\kobayashi.takahiro\workspace\bulletin_board\src\main\java\jp\co\bulletinboard\filter\LoginFilter.java
C:\Users\kobayashi.takahiro\workspace\bulletin_board\src\main\java\jp\co\bulletinboard\mapper\UserCommentMapper.java
C:\Users\kobayashi.takahiro\workspace\bulletin_board\src\main\java\jp\co\bulletinboard\dto\MessageDto.java
C:\Users\kobayashi.takahiro\workspace\bulletin_board\src\main\java\jp\co\bulletinboard\mapper\DepartmentMapper.java
C:\Users\kobayashi.takahiro\workspace\bulletin_board\src\main\java\jp\co\bulletinboard\validator\Unused.java
C:\Users\kobayashi.takahiro\workspace\bulletin_board\src\main\java\jp\co\bulletinboard\validator\CommentValidator.java
C:\Users\kobayashi.takahiro\workspace\bulletin_board\src\main\java\jp\co\bulletinboard\dto\UserCommentDto.java
C:\Users\kobayashi.takahiro\workspace\bulletin_board\src\main\java\jp\co\bulletinboard\form\UserCommentForm.java
C:\Users\kobayashi.takahiro\workspace\bulletin_board\src\main\java\jp\co\bulletinboard\form\SearchForm.java
C:\Users\kobayashi.takahiro\workspace\bulletin_board\src\main\java\jp\co\bulletinboard\validator\GroupOrder.java
C:\Users\kobayashi.takahiro\workspace\bulletin_board\src\main\java\jp\co\bulletinboard\form\UserForm.java
C:\Users\kobayashi.takahiro\workspace\bulletin_board\src\main\java\jp\co\bulletinboard\filter\ManagementFilter.java
C:\Users\kobayashi.takahiro\workspace\bulletin_board\src\main\java\jp\co\bulletinboard\controller\MessageController.java
C:\Users\kobayashi.takahiro\workspace\bulletin_board\src\main\java\jp\co\bulletinboard\controller\SignupController.java
C:\Users\kobayashi.takahiro\workspace\bulletin_board\src\main\java\jp\co\bulletinboard\entity\User.java
C:\Users\kobayashi.takahiro\workspace\bulletin_board\src\main\java\jp\co\bulletinboard\mapper\MessageMapper.java
C:\Users\kobayashi.takahiro\workspace\bulletin_board\src\main\java\jp\co\bulletinboard\form\CommentForm.java
C:\Users\kobayashi.takahiro\workspace\bulletin_board\src\main\java\jp\co\bulletinboard\controller\ManagementController.java
C:\Users\kobayashi.takahiro\workspace\bulletin_board\src\main\java\jp\co\bulletinboard\service\DepartmentService.java
C:\Users\kobayashi.takahiro\workspace\bulletin_board\src\main\java\jp\co\bulletinboard\form\UserMessageForm.java
C:\Users\kobayashi.takahiro\workspace\bulletin_board\src\main\java\jp\co\bulletinboard\service\UserService.java
C:\Users\kobayashi.takahiro\workspace\bulletin_board\src\main\java\jp\co\bulletinboard\entity\UserBranchDepartment.java
C:\Users\kobayashi.takahiro\workspace\bulletin_board\src\main\java\jp\co\bulletinboard\mapper\UserMapper.java
C:\Users\kobayashi.takahiro\workspace\bulletin_board\src\main\java\jp\co\bulletinboard\service\CommentService.java
C:\Users\kobayashi.takahiro\workspace\bulletin_board\src\main\java\jp\co\bulletinboard\controller\HomeController.java
C:\Users\kobayashi.takahiro\workspace\bulletin_board\src\main\java\jp\co\bulletinboard\form\MessageForm.java
C:\Users\kobayashi.takahiro\workspace\bulletin_board\src\main\java\jp\co\bulletinboard\entity\UserMessage.java
C:\Users\kobayashi.takahiro\workspace\bulletin_board\src\main\java\jp\co\bulletinboard\form\LoginForm.java
C:\Users\kobayashi.takahiro\workspace\bulletin_board\src\main\java\jp\co\bulletinboard\form\BranchForm.java
C:\Users\kobayashi.takahiro\workspace\bulletin_board\src\main\java\jp\co\bulletinboard\validator\UnusedValidator.java
C:\Users\kobayashi.takahiro\workspace\bulletin_board\src\main\java\jp\co\bulletinboard\mapper\BranchMapper.java
C:\Users\kobayashi.takahiro\workspace\bulletin_board\src\main\java\jp\co\bulletinboard\controller\SettingController.java
C:\Users\kobayashi.takahiro\workspace\bulletin_board\src\main\java\jp\co\bulletinboard\entity\Message.java
C:\Users\kobayashi.takahiro\workspace\bulletin_board\src\main\java\jp\co\bulletinboard\dto\UserDto.java
C:\Users\kobayashi.takahiro\workspace\bulletin_board\src\main\java\jp\co\bulletinboard\mapper\UserMessageMapper.java
C:\Users\kobayashi.takahiro\workspace\bulletin_board\src\main\java\jp\co\bulletinboard\dto\DepartmentDto.java
C:\Users\kobayashi.takahiro\workspace\bulletin_board\src\main\java\jp\co\bulletinboard\form\CommentForms.java
C:\Users\kobayashi.takahiro\workspace\bulletin_board\src\main\java\jp\co\bulletinboard\dto\BranchDto.java
C:\Users\kobayashi.takahiro\workspace\bulletin_board\src\main\java\jp\co\bulletinboard\mapper\CommentMapper.java
C:\Users\kobayashi.takahiro\workspace\bulletin_board\src\main\java\jp\co\bulletinboard\dto\SearchDto.java
C:\Users\kobayashi.takahiro\workspace\bulletin_board\src\main\java\jp\co\bulletinboard\form\UpdateForm.java
C:\Users\kobayashi.takahiro\workspace\bulletin_board\src\main\java\jp\co\bulletinboard\validator\ValidGroup5.java
C:\Users\kobayashi.takahiro\workspace\bulletin_board\src\main\java\jp\co\bulletinboard\validator\ValidGroup6.java
C:\Users\kobayashi.takahiro\workspace\bulletin_board\src\main\java\jp\co\bulletinboard\validator\LoginValidator.java
C:\Users\kobayashi.takahiro\workspace\bulletin_board\src\main\java\jp\co\bulletinboard\form\SignupForm.java
C:\Users\kobayashi.takahiro\workspace\bulletin_board\src\main\java\jp\co\bulletinboard\dto\CommentDto.java
C:\Users\kobayashi.takahiro\workspace\bulletin_board\src\main\java\jp\co\bulletinboard\validator\ConfirmPasswordValidator.java
C:\Users\kobayashi.takahiro\workspace\bulletin_board\src\main\java\jp\co\bulletinboard\entity\UserComment.java
C:\Users\kobayashi.takahiro\workspace\bulletin_board\src\main\java\jp\co\bulletinboard\validator\ConfirmPassword.java
C:\Users\kobayashi.takahiro\workspace\bulletin_board\src\main\java\jp\co\bulletinboard\validator\ValidGroup2.java
C:\Users\kobayashi.takahiro\workspace\bulletin_board\src\main\java\jp\co\bulletinboard\entity\Comment.java
C:\Users\kobayashi.takahiro\workspace\bulletin_board\src\main\java\jp\co\bulletinboard\mapper\UserBranchDepartmentMapper.java
C:\Users\kobayashi.takahiro\workspace\bulletin_board\src\main\java\jp\co\bulletinboard\form\DepartmentForm.java
C:\Users\kobayashi.takahiro\workspace\bulletin_board\src\main\java\jp\co\bulletinboard\validator\ValidGroup4.java
C:\Users\kobayashi.takahiro\workspace\bulletin_board\src\main\java\jp\co\bulletinboard\controller\LoginController.java
C:\Users\kobayashi.takahiro\workspace\bulletin_board\src\main\java\jp\co\bulletinboard\validator\ValidGroup3.java
C:\Users\kobayashi.takahiro\workspace\bulletin_board\src\main\java\jp\co\bulletinboard\dto\UserMessageDto.java
C:\Users\kobayashi.takahiro\workspace\bulletin_board\src\main\java\jp\co\bulletinboard\service\MessageService.java
C:\Users\kobayashi.takahiro\workspace\bulletin_board\src\main\java\jp\co\bulletinboard\dto\UserBranchDepartmentDto.java
C:\Users\kobayashi.takahiro\workspace\bulletin_board\src\main\java\jp\co\bulletinboard\validator\ValidGroup1.java
C:\Users\kobayashi.takahiro\workspace\bulletin_board\src\main\java\jp\co\bulletinboard\form\UserBranchDepartmentForm.java
C:\Users\kobayashi.takahiro\workspace\bulletin_board\src\main\java\jp\co\bulletinboard\entity\Department.java
C:\Users\kobayashi.takahiro\workspace\bulletin_board\src\main\java\jp\co\bulletinboard\entity\Branch.java
C:\Users\kobayashi.takahiro\workspace\bulletin_board\src\main\java\jp\co\bulletinboard\service\BranchService.java
C:\Users\kobayashi.takahiro\workspace\bulletin_board\src\main\java\jp\co\bulletinboard\validator\UsedAccountValidator.java
